<svg xmlns="http://www.w3.org/2000/svg" width="250" height="240" viewBox="24 20 250 240">
  <path d="M24 20h250v240H24z" fill="#ff1d10"/>
  <g fill-rule="evenodd">
    <path d="M212.252 202.034c-2.053.05-20.166.5-23.895 1.41-2.645.65-7.457-.5-9.09-.997-.832-.26-1.722.203-1.98 1.028-.26.823.206 1.698 1.042 1.954.217.065 4.383 1.326 8.116 1.326.944 0 1.858-.08 2.676-.282 2.868-.7 17.724-1.188 23.208-1.316.873-.022 1.567-.737 1.545-1.6-.02-.863-.755-1.536-1.623-1.524" fill="#211c1c"/>
    <path d="M209.437 150.174l-58.19 2.565M161.013 151.872l8.094-17.132M169.107 151.95l13.58-16.824M182.687 151.352l9.402-13.422M193.59 150.873l5.303-9.485M193.59 150.873l6.488 8.593M182.687 151.352l8.52 13.704M169.107 151.95l6.186 10.894M161.013 151.872l3.965 12.4M95.422 152.74h51.094M135.163 152.74l-6.18-16.28M124.518 152.74l-3.55-16.493M114.346 152.74l-8.186-10.454M114.346 152.74l-8.186 11.743M124.518 152.74l-9.03 13.615M135.163 152.74l-6.954 11.743M163.548 136.053l1.064.245" fill="#ec1d27"/>
    <path d="M200.355 157.216l-3.71-4.914 9.298-.41c-1.313 1.444-3.192 3.337-5.588 5.324zm-14.912-4.42l7.377-.325 5.05 6.688c-1.812 1.332-3.85 2.645-6.086 3.836l-6.34-10.2zm-32.61-5.248v-1.64c1.655-1.448 7.224-6.076 13.285-8.54l-6.345 13.432-6.94.306v-3.558zm-3.95-3.893c-.49 0-.957.1-1.39.26-1.233-1.483-6.335-6.84-16.577-8.714-5.17-8.162-6.882-15.586-5.078-22.065 1.48-5.313 5.073-8.892 7.61-10.855-.474 4.875-.074 9.325 1.13 13.354.014.096.05.184.083.275.964 3.113 2.402 5.98 4.37 8.553 6.223 8.128 15.757 11.32 20.856 12.502-4.964 2.876-8.763 6.237-9.565 6.968-.446-.174-.93-.278-1.438-.278zm-6.826 22.738c1.15-.82 2.1-1.666 2.874-2.48v4.49c-.568-.49-1.518-1.226-2.873-2.01zM98.065 154.3h13.27l-5.588 8.018c-3.968-2.777-6.397-5.962-7.682-8.017zm7.795-9.84l5.262 6.718H98.717c1.575-1.8 4.025-4.33 7.143-6.72zm39.07 3.088v3.63h-8.668l-4.82-12.696c8.222 1.788 12.387 5.994 13.49 7.28v1.786zm-17.094-9.65l5.042 13.28H125.8l-2.904-13.5c.22-.007.44-.018.66-.018 1.52 0 2.938.09 4.28.237zm-8.112.092l2.837 13.188h-7.434l-6.69-8.545c3.27-2.135 7.09-3.933 11.288-4.643zm-6.925 27.995l-.427-.193c-1.433-.532-2.735-1.148-3.94-1.81l6.748-9.68h6.41l-7.43 11.2c-.017.025-.017.055-.033.083-.438.13-.88.264-1.328.4zm5.958-1.706l6.617-9.98h7.027l-5.122 8.653c-2.886.093-5.663.596-8.522 1.326zm19.983.528c-2.11-.822-4.73-1.502-7.845-1.763l5.178-8.744h8.858v4.252c-.393.84-2.03 3.848-6.18 6.248-.004.003-.005.007-.01.008zm-27.3-41.73c0-5.554 2.734-9.898 8.13-12.91 1.716-.96 3.445-1.63 4.9-2.09-.663 1.274-1.248 2.66-1.676 4.187-1.9 6.763-.504 14.292 4.127 22.41-1.077-.086-2.192-.14-3.363-.14-2.64 0-5.158.405-7.533 1.088-3.03-3.83-4.585-8.043-4.585-12.544zm12.297-28.383c2.582-3.128 5.978-4.684 9.09-4.153 1.49.253 2.762.964 3.75 2.05.013.018.03.032.045.048.378.423.718.898 1.004 1.432-.58.344-1.25.784-1.805 1.267-.934.82-1.436 1.944-1.686 2.68-1.302.752-4.394 2.76-7.147 6.193-1.23.242-4.012.9-7.073 2.316-.12-2.676.262-7.52 3.823-11.835zm29.52-8.743c7.25 0 11.44 3.89 13.293 6.202-3.786-.065-6.712.522-6.96.575-.04.007-.068.034-.106.044-.056.016-.112.023-.166.045-.033.012-.057.04-.09.056-.014.006-.027.017-.04.025-.095.05-.183.1-.263.167-.032.025-.07.035-.102.063-.87.825-1.722 1.53-2.562 2.165-1.327-3.348-3.794-5.245-7.023-5.245-4.353 0-6.886 2.175-8.21 3.895-.33-.844-.734-1.627-1.216-2.33 1.402-1.75 5.43-5.663 13.448-5.663zm29.106 22.007c-.072 2.157-.894 4.148-2.375 5.882-1.78-10.708-9.147-15.197-10.7-16.03-.308-.706-.732-1.357-1.274-1.944-.18-.193-.366-.376-.56-.547 3.437.168 7.417.972 10.32 3.422 3.026 2.552 4.7 5.912 4.59 9.217zm4.792 15.93c0 3.83-2.31 7.497-5.892 9.395-1.713-.267-3.5-.453-5.36-.546 2.436-2.74 4.487-7.113 4.487-14.09 0-.28-.028-.535-.035-.808 1.017-.83 1.906-1.735 2.635-2.714 1.575 1.457 4.165 4.5 4.165 8.763zm12.287 19.752c2.848 1.874 5.03 3.726 6.493 5.123l-9.595.424 3.102-5.548zm-6.818-3.727c1.472.658 2.853 1.353 4.123 2.074l-4.117 7.362-6.827.3 6.82-9.737zm-9.308-3.06c2.255.486 4.35 1.12 6.312 1.84l-7.798 11.133-9.314.41 10.8-13.382zm-34.952-15.86c3.285 0 6.054-.847 8.205-1.877 7.9-3.783 12.72-12.3 13.258-17.16 2.835 2.28 7.392 7.387 7.392 16.692 0 6.75-2.14 11.64-6.195 14.134-.01.006-.013.015-.022.02-.784.1-1.57.26-2.353.454-.04.013-.08.018-.117.032-1.37.346-2.727.815-4.053 1.374l-.573-.13c-.03-.008-.058 0-.085-.004-.035-.006-.063-.025-.096-.03-.143-.014-14.377-1.724-22.18-11.937-.885-1.162-1.655-2.392-2.312-3.685 3.355 1.527 6.42 2.118 9.13 2.118zm-11.935-15.218c2.447 2.015 6.35 4.592 10.458 4.74 2.67.086 5.027-.815 7.032-2.706 5.38-5.074 6.956-9.486 7.41-11.84 1.297.22 3.183.743 4.338 1.997.82.892 1.16 2.04 1.032 3.508-.304 3.49-4.414 11.433-11.517 14.834-5.474 2.62-11.425 1.97-17.687-1.914-.75-2.66-1.108-5.533-1.067-8.62zm6.734-9.397c.714-1.134 2.505-3.207 6.073-3.207 2.46 0 3.685 1.908 4.303 3.857-2.156 1.123-4.2 1.583-6.112 1.32-1.78-.248-3.21-1.09-4.264-1.97zm-5.238 1.294c.348-.303.812-.61 1.252-.874 1.262 1.564 3.847 4.077 7.764 4.635.528.076 1.058.114 1.593.114 2.763 0 5.637-1.028 8.587-3.02-.922 1.906-2.54 4.332-5.393 7.026-1.382 1.3-2.935 1.9-4.72 1.84-4.395-.154-8.874-4.193-10.314-5.607.092-.8.2-1.605.34-2.427.055-.255.347-1.21.89-1.69zm25.416 52.97l6.872-14.545c.982-.198 1.96-.317 2.915-.317 2.322 0 4.53.168 6.634.456l-11.45 14.183-4.972.22zm47.588.03c.062-.18.094-.365.087-.552 0-.006.004-.01.003-.016 0-.03-.018-.054-.02-.084-.016-.154-.052-.304-.115-.45-.026-.06-.062-.116-.097-.175-.034-.06-.056-.125-.1-.18-.433-.55-8.973-11.147-25.17-15.093 2.986-2.616 4.807-6.352 4.807-10.233 0-5.974-3.853-9.953-5.732-11.542.568-1.36.888-2.8.938-4.286.143-4.258-1.932-8.52-5.694-11.694-2.716-2.29-6.083-3.398-9.29-3.888-.017-.035-.014-.074-.033-.11-.207-.39-5.195-9.54-17.255-9.54-8.81 0-13.613 4.147-15.632 6.495-1.23-.94-2.662-1.59-4.26-1.86-4.254-.728-8.774 1.242-12.088 5.26-4.984 6.042-4.734 12.846-4.407 15.45-4.456 2.81-8.6 7.428-8.6 14.904 0 4.89 1.548 9.472 4.607 13.643-11.103 4.53-18.366 14.575-18.754 15.12-.052.074-.087.155-.125.235-.013.027-.03.05-.042.077-.07.17-.102.347-.108.528 0 .02-.01.036-.01.056 0 .02.01.04.01.06.01.178.034.354.104.523l.008.02c0 .002.003.006.005.008.232.564 3.898 9 14.18 14.016-6.156 1.76-13.227 3.357-22.435 3.357-.876 0-1.585.7-1.585 1.562 0 .863.71 1.562 1.585 1.562 11.907 0 20.288-2.536 27.682-4.775 5.364-1.624 10-3.027 14.816-3.027 9.99 0 15 5.035 15.078 5.113l3.328 3.278c.31.305.715.458 1.12.458.407 0 .812-.153 1.122-.458.62-.61.62-1.6 0-2.207l-.755-.743v-23.94c0-.422.35-.768.782-.768.43 0 .78.345.78.768v22.778c0 .863.71 1.562 1.585 1.562s1.585-.7 1.585-1.562v-6.41c1.07 1.124 2.468 2.317 4.28 3.403.75.445 1.723.214 2.178-.524.454-.738.217-1.697-.53-2.147-3.92-2.348-5.536-5.283-5.928-6.103v-4.314l7.174-.317 3.46 10.826c.214.667.84 1.092 1.512 1.092.157 0 .32-.023.477-.072.834-.258 1.297-1.135 1.035-1.96l-3.206-10.03 4.92-.217 5.706 10.05c.29.512.83.8 1.385.8.262 0 .527-.063.772-.198.764-.42 1.036-1.373.61-2.126l-4.93-8.68 10.08-.445 7.103 11.427c-.4.18-.798.362-1.21.53-.81.332-1.192 1.245-.856 2.042.253.6.843.962 1.464.962.202 0 .408-.037.606-.118 1.046-.43 2.044-.894 3.02-1.375.027-.013.056-.02.083-.035.006-.004.01-.01.016-.015 11.714-5.802 18.375-14.877 18.675-15.293.056-.076.083-.164.123-.246.027-.054.06-.1.08-.16zM111.506 211.107c-9.317-11.816-25.427-8.787-26.108-8.654-.858.17-1.415.993-1.242 1.84.172.843 1.014 1.39 1.865 1.222.15-.026 14.858-2.796 22.982 7.508.698.885 1.498 1.735 2.378 2.524.305.274.686.41 1.068.41.43 0 .858-.174 1.172-.512.59-.636.542-1.624-.103-2.205-.748-.67-1.425-1.39-2.01-2.133M178.662 201.587l-.43-.417c-1.03-1.012-12.257-12.074-20.778-20.468-.62-.61-1.622-.61-2.24 0-.62.61-.62 1.598 0 2.207 8.52 8.396 19.75 19.46 20.776 20.47l.456.44c1.63 1.57 5.96 5.744 5.977 8.882.004.776-.268 1.407-.856 1.987-.853.84-1.797 1.216-2.78 1.23-2.19-.023-4.24-1.868-4.68-2.29-.914-.94-1.84-1.75-2.554-2.372-.316-.275-.572-.497-.732-.653l-6.85-6.75-2.242 2.208 6.852 6.75c.192.19.495.457.872.785 1.475 1.286 4.933 4.297 5.004 6.57.017.563-.198 1.044-.673 1.513-.732.72-1.48 1.062-2.28 1.016-1.633-.074-3.283-1.626-3.78-2.215l-.01-.007c-.44-.572-.932-1.15-1.534-1.744l-8.244-8.127-2.24 2.21 8.242 8.126c1.343 1.32 2.157 2.525 2.418 3.58.263 1.056-.04 1.938-.98 2.862-1.56 1.54-3.89.43-4.677-.02-.383-.64-.837-1.25-1.392-1.796-1.915-1.888-6.827-7.337-6.877-7.392-.58-.647-1.582-.705-2.235-.13-.655.57-.714 1.558-.133 2.204.204.227 5.022 5.574 7.005 7.526.817.805 1.373 1.814 1.525 2.77.164 1.018-.13 1.88-.893 2.635-.318.31-.68.423-1.15.445-1.062-.008-3.566-.75-8.373-5.64-.607-.62-1.61-.632-2.24-.033-.63.6-.644 1.59-.034 2.21 4.337 4.41 7.813 6.565 10.624 6.586h.042c1.3 0 2.464-.47 3.37-1.36 1.21-1.193 1.843-2.69 1.853-4.294.53.114 1.08.187 1.64.187 1.43 0 2.918-.44 4.186-1.69 1.25-1.23 1.915-2.636 1.982-4.128.548.18 1.12.323 1.734.353.095.005.19.008.284.008 1.6 0 3.118-.665 4.405-1.934 1.09-1.074 1.643-2.396 1.6-3.82-.014-.39-.077-.777-.17-1.162.413.08.84.13 1.277.136h.098c1.857 0 3.532-.722 4.98-2.148 1.19-1.173 1.792-2.59 1.783-4.21-.025-4.442-4.864-9.107-6.93-11.1" fill="#fff"/>
    <path d="M146.52 225.742c-1.716 4.21-7.272 9.58-9.91 9.58-.333 0-.487-.098-.617-.244-1.213-1.373.813-5.16 4.926-9.206 1.844-1.816 3.664-2.9 4.865-2.9.408 0 .724.125 1.024.408.232.22.24 1.054-.29 2.362zm-19.997 4.952c-1.985-1.954 1.657-7.295 6.143-11.72.675-.665 1.563-1.54 2.53-2.38.04-.037.092-.06.13-.104.005-.006.01-.01.013-.017 1.593-1.366 3.373-2.597 4.73-2.597.474 0 .848.16 1.215.523.584.58.855 1.205.853 1.97-.01 3.06-4.31 7.255-6.145 9.048l-.444.432c-.225.223-.468.47-.728.733-1.762 1.78-4.708 4.76-6.856 4.76-.537-.002-.996-.207-1.443-.65zm-7.29-5.968c-1.845-1.817 1.607-6.85 5.843-11.033 4.24-4.17 6.84-5.383 8.432-3.932.6.55 1.83 1.682-.51 4.593-.87.762-1.73 1.58-2.574 2.41-1.912 1.887-4.268 4.492-5.86 7.183-1.328 1.102-3.61 2.475-5.33.78zm-5.817-6.464c-.807-.795.1-2.62.713-3.636 1.193-1.976 3.03-3.905 4.016-4.878l.406-.4c1.337-1.328 3.575-3.547 4.93-3.547.17 0 .382.035.654.29.28.262.406.57.41.995.025 1.923-2.342 5.125-4.698 7.448l-.566.567c-1.228 1.242-3.516 3.555-5.014 3.554-.21 0-.5-.044-.852-.392zm32.37 1.587c-.486 0-.97.086-1.447.207.585-1.203.964-2.445.968-3.677.006-1.604-.592-3.012-1.777-4.184-.953-.944-2.15-1.444-3.46-1.444-.84 0-1.684.203-2.526.547-.048-1.78-1.036-3.06-1.886-3.832-2.524-2.302-5.443-1.55-7.962-.012.01-.136.022-.273.02-.408-.014-1.264-.497-2.38-1.395-3.22-.8-.753-1.783-1.15-2.838-1.15-2.674 0-5.172 2.477-7.178 4.467l-.398.394c-1.093 1.076-3.132 3.22-4.5 5.49-2.4 3.975-1.45 6.24-.23 7.44.866.855 1.937 1.308 3.092 1.308.534 0 1.057-.12 1.575-.288-.57 2.014-.39 3.93 1.15 5.445 1.16 1.145 2.565 1.713 4.077 1.71.58 0 1.177-.092 1.782-.26-.23 1.67.126 3.235 1.43 4.518 1.05 1.037 2.29 1.562 3.684 1.563 1.6 0 3.176-.725 4.634-1.727-.34 1.582-.133 3.104 1 4.388.76.862 1.802 1.318 3.01 1.318h.002c4.648 0 11-7 12.848-11.54 1.3-3.194.468-4.91-.46-5.783-.885-.835-1.997-1.274-3.215-1.274zM136.748 189.845c0-6.81 10.86-14.573 16.078-18.302 1.13-.81 2.025-1.447 2.622-1.935 3.583-2.922 11.115-4.666 20.148-4.666 6.972 0 12.73 3.168 16.333 5.824 4.518 3.338 18.793 3.392 20.364 3.394.876-.002 1.584-.702 1.58-1.564 0-.862-.71-1.56-1.584-1.56h-.15c-5.693 0-15.568-.744-18.31-2.77-3.99-2.942-10.39-6.448-18.234-6.448-9.894 0-17.974 1.962-22.168 5.384-.52.423-1.42 1.068-2.465 1.812-6.058 4.332-17.323 12.383-17.385 20.76-.073.884-.59 8.517 2.912 12.294 1.328 1.433 3.03 2.16 5.06 2.16 1.785 0 3.228-.557 4.29-1.655 2.28-2.36 2.076-6.547 1.91-9.91-.065-1.308-.153-3.1.018-3.49 1.847-2.34 5.846-5.805 8.566-5.805.875 0 1.585-.7 1.585-1.562 0-.863-.71-1.56-1.586-1.56-4.542 0-9.53 5.06-11.068 7.01-.9 1.138-.81 2.992-.682 5.56.13 2.62.305 6.21-1.04 7.602-.284.293-.8.686-1.995.686-1.133 0-1.995-.363-2.717-1.14-2.24-2.41-2.27-8.02-2.092-9.98.005-.046.008-.093.008-.14" fill="#211c1c"/>
  </g>
</svg>
